{
  "donors": [
    {
      "name": "J. Mukherjee",
      "amount": "$50",
      "date": "August 2020"
    },
    {
      "name": "S. Hu",
      "amount": "$15",
      "date": "September 2020"
    },
    {
      "name": "S. El-Shawa",
      "amount": "$46",
      "date": "September 2020"
    },
    {
      "name": "U. Jan",
      "amount": "$50",
      "date": "September 2020"
    },
    {
      "name": "A. Malpani",
      "amount": "130,000 INR",
      "date": "June 2021"
    },
    {
      "name": "J. Jacks",
      "amount": "$1000",
      "date": "July 2021"
    },
    {
      "name": "S. Bangash",
      "amount": "150,000 PKR",
      "date": "January 2021"
    }
  ]
}
